
   echo 1 
   nlinecalc "(-14).(-3)-2.[(-2)-(-16).4]" 

   echo 2 
   echo "(-14)*(-3)-2*[(-2)-(-16)*4]"  | bc 

   echo 3 
   nlinecalc "(-14)*(-3)-2*[(-2)-(-16)*4]" 


   echo 4 
   nlinecalc "(-14)*(-3)-2*((-2)-(-16)*4)" 

   echo 5 
   echo "(-14)*(-3)-2*((-2)-(-16)*4)"  | bc 




