1
nan
(-14).(-3)-2.[(-2)-(-16).4]
Function: (-14).(-3)-2.[(-2)-(-16).4] 
LineCalc: Result Engineering: NAN 
LineCalc: nan
2
3
nan
(-14)*(-3)-2*[(-2)-(-16)*4]
Function: (-14)*(-3)-2*[(-2)-(-16)*4] 
LineCalc: Result Engineering: NAN 
LineCalc: nan
4
-82.000000
(-14)*(-3)-2*((-2)-(-16)*4)
Function: (-14)*(-3)-2*((-2)-(-16)*4) 
LineCalc: Result Engineering: -8.200E+01 
LineCalc: -82.000000
5
-82
